A,F,170
A,E,984
B,K,1005
B,I,1072
C,O,952
D,P,939
D,E,30
D,H,728
D,Q,510
E,D,30
E,A,984
F,A,170
F,L,105
G,O,1052
G,M,1157
H,J,619
H,D,728
I,N,154
I,B,1072
I,L,363
I,O,279
I,O,306
J,H,619
J,R,623
J,P,886
K,B,1005
K,R,743
K,Q,700
K,R,637
L,F,105
L,I,363
M,G,1157
M,N,599
N,I,154
N,M,599
O,C,952
O,G,1052
O,I,279
O,I,306
P,D,939
P,J,886
Q,D,510
Q,K,700
R,J,623
R,K,743
R,K,637
